[
  {
    "objectID": "index.html",
    "href": "index.html",
    "title": "Die Vermessung der Bildung",
    "section": "",
    "text": "Im Kontext des Seminars werden große bundesdeutsche Vergleichsstudien (PISA, TIMSS …) genauer in Augenschein genommen und deren bildungstheoretische Implikationen und forschungsmethodische Konstruktion beleuchtet. Neben einer kritisch-konstruktiven Diskussion dieser quantitativen Vermessung der Bildung sind auch kleinere Sekundäranalysen des öffentlich zugänglichen Datenmaterials sowie eine Sondierung der Erhebungsinstrumente vorgesehen."
  },
  {
    "objectID": "index.html#termine",
    "href": "index.html#termine",
    "title": "Die Vermessung der Bildung",
    "section": "Termine",
    "text": "Termine\n\nEinführung"
  },
  {
    "objectID": "00-intro/00-intro.html#themen",
    "href": "00-intro/00-intro.html#themen",
    "title": "Pragmatisch, praktisch, gut",
    "section": "Themen",
    "text": "Themen\n\nAusgangslage\nPädagogische Transformationen\nPersonen\nKernkonzepte\n\n\n\nZunächst die individuelle Ausgangslage und die Ausgangslage der Disziplin in Europa und Amerika thematisieren.\nDanach die entscheidenden theoretischen Umwälzungen im 19. Jahrhundert in den Blick nehmen.\nEs folgt ein digital aufbereiteter Blick auf wichtige Personen in Form von Slides.\nAbschließend werden im Sinn einer pragmatischen Pädagogik Kernkonzepte kritisch diskutiert."
  },
  {
    "objectID": "00-intro/00-intro.html#lego",
    "href": "00-intro/00-intro.html#lego",
    "title": "Pragmatisch, praktisch, gut",
    "section": "LEGO",
    "text": "LEGO"
  },
  {
    "objectID": "00-intro/00-intro.html#lego-1",
    "href": "00-intro/00-intro.html#lego-1",
    "title": "Pragmatisch, praktisch, gut",
    "section": "LEGO",
    "text": "LEGO"
  },
  {
    "objectID": "00-intro/00-intro.html#mindmap",
    "href": "00-intro/00-intro.html#mindmap",
    "title": "Die Vermessung der Bildung",
    "section": "Mindmap",
    "text": "Mindmap\n\n\n    \nhttps://link.inventionate.de/Ngn1Pr"
  },
  {
    "objectID": "00-intro/00-intro.html#agenda",
    "href": "00-intro/00-intro.html#agenda",
    "title": "Die Vermessung der Bildung",
    "section": "Agenda",
    "text": "Agenda\n\nBildungskonzepte verstehen\nPISA Re-Analysieren\n\nInteraktive Webapps\nIndividuelle Analysen\n\nBildungstheorie und Bildungsforschung verstehen"
  },
  {
    "objectID": "00-intro/00-intro.html#webstory",
    "href": "00-intro/00-intro.html#webstory",
    "title": "Pragmatisch, praktisch, gut",
    "section": "Webstory",
    "text": "Webstory"
  },
  {
    "objectID": "00-intro/00-intro.html#visual-web-story",
    "href": "00-intro/00-intro.html#visual-web-story",
    "title": "Die Vermessung der Bildung",
    "section": "Visual Web Story",
    "text": "Visual Web Story\n\nAuf Shorthand hinweisen."
  },
  {
    "objectID": "00-intro/00-intro.html#shorthand",
    "href": "00-intro/00-intro.html#shorthand",
    "title": "Pragmatisch, praktisch, gut",
    "section": "Shorthand",
    "text": "Shorthand"
  },
  {
    "objectID": "00-intro/00-intro.html#modulleistung-1",
    "href": "00-intro/00-intro.html#modulleistung-1",
    "title": "Die Vermessung der Bildung",
    "section": "Modulleistung",
    "text": "Modulleistung\nSchriftliche Ausarbeitung und Erweiterung der individuellen Analyse."
  },
  {
    "objectID": "00-intro/00-intro.html#das-buch-als-roter-faden",
    "href": "00-intro/00-intro.html#das-buch-als-roter-faden",
    "title": "Die Vermessung der Bildung",
    "section": "Das Buch als roter Faden",
    "text": "Das Buch als roter Faden"
  },
  {
    "objectID": "00-intro/00-intro.html#ergänzungstexte",
    "href": "00-intro/00-intro.html#ergänzungstexte",
    "title": "Vergessene Zusammenhänge",
    "section": "Ergänzungstexte",
    "text": "Ergänzungstexte"
  },
  {
    "objectID": "00-intro/00-intro.html#lektorewochen",
    "href": "00-intro/00-intro.html#lektorewochen",
    "title": "Vergessene Zusammenhänge",
    "section": "Lektorewochen",
    "text": "Lektorewochen\n\n\nZunächst die individuelle Ausgangslage und die Ausgangslage der Disziplin in Europa und Amerika thematisieren.\nDanach die entscheidenden theoretischen Umwälzungen im 19. Jahrhundert in den Blick nehmen.\nEs folgt ein digital aufbereiteter Blick auf wichtige Personen in Form von Slides.\nAbschließend werden im Sinn einer pragmatischen Pädagogik Kernkonzepte kritisch diskutiert."
  },
  {
    "objectID": "00-intro/00-intro.html#aus-dem-inhalt",
    "href": "00-intro/00-intro.html#aus-dem-inhalt",
    "title": "Die Vermessung der Bildung",
    "section": "»Aus dem Inhalt«",
    "text": "»Aus dem Inhalt«\n\nPräsentation\nRepräsentation\nBildsamkeit\nSelbsttätigkeit\n\n\nQuelle: Klaus Mollenhauer (2008)"
  },
  {
    "objectID": "00-intro/00-intro.html#aus-dem-inhalt-.text-center-.-center",
    "href": "00-intro/00-intro.html#aus-dem-inhalt-.text-center-.-center",
    "title": "Vergessene Zusammenhänge",
    "section": "»Aus dem Inhalt« {.text-center . center}",
    "text": "»Aus dem Inhalt« {.text-center . center}\n\nPräsentation\nRepräsentation\nBildsamkeit\nSelbsttätigkeit"
  },
  {
    "objectID": "00-intro/00-intro.html#ergänzungstexe",
    "href": "00-intro/00-intro.html#ergänzungstexe",
    "title": "Die Vermessung der Bildung",
    "section": "Ergänzungstexe",
    "text": "Ergänzungstexe\n\nOptional\nPro Themenblock ein Text"
  },
  {
    "objectID": "00-intro/00-intro.html#vertiefungswochen",
    "href": "00-intro/00-intro.html#vertiefungswochen",
    "title": "Die Vermessung der Bildung",
    "section": "Vertiefungswochen",
    "text": "Vertiefungswochen\n\nNach der Pfingstwoche entfallen zwei Termine\nVertiefung des Konzepts der Bildsamkeit\nZwei aktuelle Texte:\n\nAnhalt (2012)\nDörpinghaus et al. (2012)"
  },
  {
    "objectID": "00-intro/00-intro.html#modulleistung",
    "href": "00-intro/00-intro.html#modulleistung",
    "title": "Vergessene Zusammenhänge",
    "section": "Modulleistung",
    "text": "Modulleistung\nSchriftliche Ausarbeitung der Visual Web Story."
  },
  {
    "objectID": "00-intro/00-intro.html#prüfung-1",
    "href": "00-intro/00-intro.html#prüfung-1",
    "title": "Die Vermessung der Bildung",
    "section": "Prüfung",
    "text": "Prüfung\n\nGemeinsam mit Timo Hoyer\nAm Ende des Semesters\nZirka 30 Minuten (mündlich)"
  },
  {
    "objectID": "00-intro/00-intro.html#prüfung-2",
    "href": "00-intro/00-intro.html#prüfung-2",
    "title": "Die Vermessung der Bildung",
    "section": "Prüfung",
    "text": "Prüfung\n\nBei aktiver Mitarbeit im Semester: 2,0 sicher\nDas Prüfungsgespräch verbessert oder verschlechtert die Note\nBei mangehalfter Mitarbeit:Die Prüfung entscheidet über das Bestehen"
  },
  {
    "objectID": "00-intro/00-intro.html#studienleistung-1",
    "href": "00-intro/00-intro.html#studienleistung-1",
    "title": "Die Vermessung der Bildung",
    "section": "Studienleistung",
    "text": "Studienleistung\nAnfertigen und Präsentieren einer individuellen Analyse der PISA-Daten."
  },
  {
    "objectID": "00-intro/00-intro.html#interaktive-webapps",
    "href": "00-intro/00-intro.html#interaktive-webapps",
    "title": "Die Vermessung der Bildung",
    "section": "Interaktive Webapps",
    "text": "Interaktive Webapps"
  },
  {
    "objectID": "02-bildungsmonitoring/02-bildungsmonitoring.html#agenda",
    "href": "02-bildungsmonitoring/02-bildungsmonitoring.html#agenda",
    "title": "Die Vermessung der Bildung",
    "section": "Agenda",
    "text": "Agenda\n\nBildungskonzepte verstehen\nPISA Re-Analysieren\n\nInteraktive Webapps\nIndividuelle Analysen\n\nOffener Themenbereich (TIMSS, SINUS …)"
  },
  {
    "objectID": "02-bildungsmonitoring/02-bildungsmonitoring.html#interaktive-webapps",
    "href": "02-bildungsmonitoring/02-bildungsmonitoring.html#interaktive-webapps",
    "title": "Die Vermessung der Bildung",
    "section": "Interaktive Webapps",
    "text": "Interaktive Webapps"
  },
  {
    "objectID": "02-bildungsmonitoring/02-bildungsmonitoring.html#studienleistung-1",
    "href": "02-bildungsmonitoring/02-bildungsmonitoring.html#studienleistung-1",
    "title": "Die Vermessung der Bildung",
    "section": "Studienleistung",
    "text": "Studienleistung\nAnfertigen und Präsentieren einer individuellen Analyse der PISA-Daten."
  },
  {
    "objectID": "02-bildungsmonitoring/02-bildungsmonitoring.html#mindmap",
    "href": "02-bildungsmonitoring/02-bildungsmonitoring.html#mindmap",
    "title": "Die Vermessung der Bildung",
    "section": "Mindmap",
    "text": "Mindmap\n\n\n    \nhttps://mm.tt/map/2682405920?t=TOg8rQWwoZ"
  },
  {
    "objectID": "02-bildungsmonitoring/02-bildungsmonitoring.html#arithmetikproblemlösen-schwerere-aufgabe",
    "href": "02-bildungsmonitoring/02-bildungsmonitoring.html#arithmetikproblemlösen-schwerere-aufgabe",
    "title": "Bildungs-monitoring",
    "section": "Arithmetik/Problemlösen (schwerere Aufgabe)",
    "text": "Arithmetik/Problemlösen (schwerere Aufgabe)\nAufgabe: Tom kauft zwei große Eiswaffeln und vier kleine Eis am Stiel für zusammen genau 22 Zeds (fiktive Währung). Lena kauft eine Eiswaffel und drei Eis am Stiel für insgesamt 14 Zeds. Frage: Wie viel kosten eine Eiswaffel und ein Eis am Stiel zusammen?\nFrage: Wie viel kostet ein Eis am Stiel?"
  },
  {
    "objectID": "02-bildungsmonitoring/02-bildungsmonitoring.html#arithmetikreproduzieren-leichtere-aufgabe",
    "href": "02-bildungsmonitoring/02-bildungsmonitoring.html#arithmetikreproduzieren-leichtere-aufgabe",
    "title": "Bildungs-monitoring",
    "section": "Arithmetik/Reproduzieren (leichtere Aufgabe)",
    "text": "Arithmetik/Reproduzieren (leichtere Aufgabe)\nAufgabe: Jonas pflanzt je acht Bäume in fünf Reihen.\nFrage: Wie viele Bäume pflanzt er insgesamt? Mögliche Antworten: A: 13, B: 32, C: 35, D: 40"
  },
  {
    "objectID": "02-bildungsmonitoring/02-bildungsmonitoring.html#physikchemie-schwerere-aufgabe",
    "href": "02-bildungsmonitoring/02-bildungsmonitoring.html#physikchemie-schwerere-aufgabe",
    "title": "Bildungs-monitoring",
    "section": "Physik/Chemie (schwerere Aufgabe)",
    "text": "Physik/Chemie (schwerere Aufgabe)\nAufgabe: An der Oberseite eines Plastikautos wurde ein Magnet befestigt. Sarah nimmt noch einen Magneten und will das Auto damit wegschieben. (Der Magnet auf dem Auto ist nach vorne mit Nordpol gekennzeichnet, nach hinten mit Südpol.)\nFrage: Wie muss sie ihren Magneten halten, damit sie das Auto wegschieben kann?"
  },
  {
    "objectID": "02-bildungsmonitoring/02-bildungsmonitoring.html#biologiereproduzieren-leichte-aufgabe",
    "href": "02-bildungsmonitoring/02-bildungsmonitoring.html#biologiereproduzieren-leichte-aufgabe",
    "title": "Bildungs-monitoring",
    "section": "Biologie/Reproduzieren (leichte Aufgabe)",
    "text": "Biologie/Reproduzieren (leichte Aufgabe)\nAufgabe: Andreas läuft und beginnt, schneller zu atmen.\nFrage: Dies passiert, weil sein Körper …\nMögliche Antworten: A: Kohlendioxid braucht, B: Wasserstoff braucht, C: Wasser braucht, D: Sauerstoff braucht\n\nLösungen:\n\nAufgabe: Eine Eiswaffel und ein Eis am Stiel kosten zusammen 8 Zeds / Ein Eis am Stiel kostet 3 Zeds.\nAufgabe: D: 40 Bäume\nAufgabe: Die Südseite des Magneten muss zur Südseite des Magneten auf dem Auto zeigen. Zwei gleiche Seiten eines Magneten stoßen einander ab.\nAufgabe: D: Sauerstoff braucht"
  },
  {
    "objectID": "02-bildungsmonitoring/02-bildungsmonitoring.html#aufbereitete-zusammenfassung",
    "href": "02-bildungsmonitoring/02-bildungsmonitoring.html#aufbereitete-zusammenfassung",
    "title": "Bildungs-monitoring",
    "section": "Aufbereitete Zusammenfassung",
    "text": "Aufbereitete Zusammenfassung\n\nDeutsches Schulportal"
  },
  {
    "objectID": "02-bildungsmonitoring/02-bildungsmonitoring.html#bm-ziele",
    "href": "02-bildungsmonitoring/02-bildungsmonitoring.html#bm-ziele",
    "title": "Bildungs-monitoring",
    "section": "BM: Ziele",
    "text": "BM: Ziele\n\nTransparente Maßstäbe.\nWissenschaftlich abgesicherte Ergebnisse.\nQualitäts- und Standardsicherung verbinden.\nLänderübergreifende Zusammenarbeit."
  },
  {
    "objectID": "02-bildungsmonitoring/02-bildungsmonitoring.html#bm-maßnahmen",
    "href": "02-bildungsmonitoring/02-bildungsmonitoring.html#bm-maßnahmen",
    "title": "Bildungs-monitoring",
    "section": "BM: Maßnahmen",
    "text": "BM: Maßnahmen\n\nTeilnahme an internationalen Schulleistungsstudien (PISA, TIMSS, IGLU).\nÜberprüfung und Umsetzung von Bildungsstandards (IQB-Bildungstrends).\nVerfahren zur Qualitätssicherung auf Ebene der Schulen (Vergleichsarbeiten [VERA]).\nBildungsberichterstattung (Bildungsbericht)."
  },
  {
    "objectID": "02-bildungsmonitoring/02-bildungsmonitoring.html#bm-maßnahmen-1",
    "href": "02-bildungsmonitoring/02-bildungsmonitoring.html#bm-maßnahmen-1",
    "title": "Bildungs-monitoring",
    "section": "BM: Maßnahmen",
    "text": "BM: Maßnahmen\n\nTeilnahme an internationalen Schulleistungsstudien (PISA, TIMSS, IGLU).\nÜberprüfung und Umsetzung von Bildungsstandards (IQB-Bildungstrends).\nVerfahren zur Qualitätssicherung auf Ebene der Schulen (Vergleichsarbeiten [VERA]).\nBildungsberichterstattung (Bildungsbericht)."
  },
  {
    "objectID": "02-bildungsmonitoring/02-bildungsmonitoring.html#aufbereitete-zusammenfassung-1",
    "href": "02-bildungsmonitoring/02-bildungsmonitoring.html#aufbereitete-zusammenfassung-1",
    "title": "Bildungs-monitoring",
    "section": "Aufbereitete Zusammenfassung",
    "text": "Aufbereitete Zusammenfassung\n\nDeutsches Schulportal"
  },
  {
    "objectID": "02-bildungsmonitoring/02-bildungsmonitoring.html#bildungsmonitoring-ziele",
    "href": "02-bildungsmonitoring/02-bildungsmonitoring.html#bildungsmonitoring-ziele",
    "title": "Bildungs-monitoring",
    "section": "Bildungsmonitoring: Ziele",
    "text": "Bildungsmonitoring: Ziele\n\nTransparente Maßstäbe\nWissenschaftlich abgesicherte Ergebnisse\nQualitäts- und Standardsicherung verbinden\nLänderübergreifende Zusammenarbeit"
  },
  {
    "objectID": "02-bildungsmonitoring/02-bildungsmonitoring.html#bildungsmonitoring-maßnahmen",
    "href": "02-bildungsmonitoring/02-bildungsmonitoring.html#bildungsmonitoring-maßnahmen",
    "title": "Bildungs-monitoring",
    "section": "Bildungsmonitoring: Maßnahmen",
    "text": "Bildungsmonitoring: Maßnahmen\n\nTeilnahme an internationalen Schulleistungsstudien (PISA, TIMSS, IGLU).\nÜberprüfung und Umsetzung von Bildungsstandards (IQB-Bildungstrends).\nVerfahren zur Qualitätssicherung auf Ebene der Schulen (Vergleichsarbeiten [VERA]).\nBildungsberichterstattung (Bildungsbericht)."
  },
  {
    "objectID": "02-bildungsmonitoring/02-bildungsmonitoring.html#bildungsmonitoring-maßnahmen-1",
    "href": "02-bildungsmonitoring/02-bildungsmonitoring.html#bildungsmonitoring-maßnahmen-1",
    "title": "Bildungs-monitoring",
    "section": "Bildungsmonitoring: Maßnahmen",
    "text": "Bildungsmonitoring: Maßnahmen\n\nTeilnahme an internationalen Schulleistungsstudien (PISA, TIMSS, IGLU).\nÜberprüfung und Umsetzung von Bildungsstandards (IQB-Bildungstrends).\nVerfahren zur Qualitätssicherung auf Ebene der Schulen (Vergleichsarbeiten [VERA]).\nBildungsberichterstattung (Bildungsbericht)."
  },
  {
    "objectID": "02-bildungsmonitoring/02-bildungsmonitoring.html#beispielaufgaben",
    "href": "02-bildungsmonitoring/02-bildungsmonitoring.html#beispielaufgaben",
    "title": "Bildungs-monitoring",
    "section": "Beispielaufgaben",
    "text": "Beispielaufgaben"
  },
  {
    "objectID": "02-bildungsmonitoring/02-bildungsmonitoring.html#beispielaufgaben-1",
    "href": "02-bildungsmonitoring/02-bildungsmonitoring.html#beispielaufgaben-1",
    "title": "Bildungs-monitoring",
    "section": "Beispielaufgaben",
    "text": "Beispielaufgaben\n\nIFS TU Dortmund"
  }
]